<svg xmlns="http://www.w3.org/2000/svg" viewBox="0 0 512 512" width="512" height="512">
    <defs>
        <filter id="shadow-2" height="300%" width="300%" x="-100%" y="-100%">
            <feFlood flood-color="rgba(0, 0, 0, 1)" result="flood"></feFlood>
            <feComposite in="flood" in2="SourceGraphic" operator="atop" result="composite"></feComposite>
            <feGaussianBlur in="composite" stdDeviation="15" result="blur"></feGaussianBlur>
            <feOffset dx="0" dy="0" result="offset"></feOffset>
            <feComposite in="SourceGraphic" in2="offset" operator="over"></feComposite>
        </filter>
        <filter id="shadow-3" height="300%" width="300%" x="-100%" y="-100%">
            <feFlood flood-color="rgba(0, 0, 0, 1)" result="flood"></feFlood>
            <feComposite in="flood" in2="SourceGraphic" operator="atop" result="composite"></feComposite>
            <feGaussianBlur in="composite" stdDeviation="15" result="blur"></feGaussianBlur>
            <feOffset dx="0" dy="0" result="offset"></feOffset>
            <feComposite in="SourceGraphic" in2="offset" operator="over"></feComposite>
        </filter>
        <filter id="shadow-4" height="300%" width="300%" x="-100%" y="-100%">
            <feFlood flood-color="rgba(0, 0, 0, 1)" result="flood"></feFlood>
            <feComposite in="flood" in2="SourceGraphic" operator="atop" result="composite"></feComposite>
            <feGaussianBlur in="composite" stdDeviation="15" result="blur"></feGaussianBlur>
            <feOffset dx="0" dy="0" result="offset"></feOffset>
            <feComposite in="SourceGraphic" in2="offset" operator="over"></feComposite>
        </filter>
        <radialGradient id="gradient-2">
            <stop offset="0%" stop-color="#f8e71c" stop-opacity="1"></stop>
            <stop offset="100%" stop-color="#f5a623" stop-opacity="1"></stop>
        </radialGradient>
        <radialGradient id="gradient-3">
            <stop offset="0%" stop-color="#f8e71c" stop-opacity="1"></stop>
            <stop offset="100%" stop-color="#f5a623" stop-opacity="1"></stop>
        </radialGradient>
        <radialGradient id="gradient-4">
            <stop offset="0%" stop-color="#f8e71c" stop-opacity="1"></stop>
            <stop offset="100%" stop-color="#f5a623" stop-opacity="1"></stop>
        </radialGradient>
    </defs>
    <rect fill="#2c4251" fill-opacity="1" height="512" width="512" rx="32" ry="32"></rect>
    <g class="" transform="translate(0,0)" style="touch-action: none;">
        <path
            d="M196.27 22.814c-8.29 0-14.194 5.093-17.91 10.163-3.713 5.07-6.032 10.492-6.032 16.814 0 6.323 2.16 11.873 5.668 17.433 3.51 5.56 9.108 11.85 18.275 11.85h-.202l6.63.142v122.002C150.973 267.087 50.5 395.497 50.5 395.497l-.402.513-.325.562c-5.1 8.808-10.02 21.052-10.02 35.635 0 35.53 29.48 64.827 64.827 64.828h299.6c35.253 0 64.828-28.916 64.828-64.828 0-16.296-7.106-28.625-11.197-35.652l-.334-.576-151.412-191.287V79.21c2.597-.066 3.062-.134 6.336-.136h.088c9.168 0 14.767-6.292 18.276-11.85 1.137-1.804 2.07-3.617 2.896-5.445l1.4-1.397h-.814c1.352-3.372 2.186-6.84 2.186-10.592 0-6.32-2.317-11.744-6.032-16.813-3.714-5.07-9.62-10.163-17.912-10.163h-116.22zm0 18.688h116.222c-.094 0 1.3.423 2.836 2.52 1.536 2.096 2.42 5.492 2.42 5.77 0 .276-1.043 4.696-2.785 7.456-1.736 2.75-3.422 3.132-2.475 3.135-6.836 0-12.118.197-14.302.285v-.207h-96.948v.03l-4.865-.105h-.102c.972 0-.727-.377-2.47-3.137-1.74-2.76-2.784-7.18-2.784-7.457 0-.276.883-3.672 2.42-5.77 1.536-2.095 2.93-2.518 2.835-2.518zm25.115 37.646h65.996v75.07h-.044v52.497l.045.058v4.422L441.948 406.47c3.908 6.738 8.373 15.1 8.373 25.737 0 25.66-21.09 46.14-46.138 46.14h-299.6c-24.953-.002-46.14-21.018-46.14-46.14 0-3.557.43-6.963 1.146-10.184l.055.084c.754-3.474 1.845-6.648 3.084-9.513l-.174.242c.977-2.32 2.05-4.496 3.17-6.465.668-.854 102.782-131.362 153.668-196.155l1.995-2.54v-1.155c.023-.03.07-.088.092-.118v-52.185h-.092v-75.07zm18.78 75.07v58.618l-1.99 2.537C204.078 258.886 82.596 415.245 81.714 416.38c-2.38 4.202-4.48 9.69-4.48 15.817 0 15.208 12.87 27.98 27.898 27.98h298.995c15.124 0 27.898-12.386 27.898-27.98 0-6.278-2.624-11.274-5.203-15.736L268.646 213.13v-58.913h-28.48zm-4.048 119.73c21.015 0 38.25 17.236 38.25 38.25 0 21.017-17.235 38.253-38.25 38.253s-38.252-17.236-38.252-38.25c0-21.016 17.237-38.253 38.252-38.253zm0 18.69c-10.913 0-19.562 8.648-19.562 19.56 0 10.915 8.65 19.564 19.562 19.564 10.914 0 19.563-8.647 19.563-19.563 0-10.914-8.65-19.563-19.563-19.563zm-60.293 54.817c21.015 0 38.252 17.237 38.252 38.252 0 21.016-17.237 38.252-38.252 38.252-21.015 0-38.252-17.238-38.252-38.253s17.237-38.252 38.252-38.252zm96.623 10.71c24.664 0 44.858 20.197 44.858 44.86 0 24.665-20.195 44.858-44.858 44.858-24.663 0-44.86-20.194-44.86-44.858 0-24.663 20.197-44.86 44.86-44.86zm-96.623 7.98c-10.913 0-19.562 8.65-19.562 19.562 0 10.914 8.65 19.563 19.562 19.563 10.914 0 19.563-8.648 19.563-19.563 0-10.913-8.65-19.562-19.563-19.562zm96.623 10.71c-14.562 0-26.17 11.608-26.17 26.17 0 14.563 11.608 26.17 26.17 26.17 14.564 0 26.17-11.605 26.17-26.17 0-14.562-11.607-26.17-26.17-26.17z"
            fill="#fff" fill-opacity="1"></path>
    </g>
</svg>